<?xml version="1.0" encoding="UTF-8"?>
<glyph name="Aring" format="1">
  <advance width="626"/>
  <unicode hex="00C5"/>
  <note>
    Aring
  </note>
  <outline>
    <component base="A"/>
    <component base="ringcomb" xOffset="181" yOffset="180"/>
  </outline>
  <lib>
    <dict>
      <key>com.schriftgestaltung.Glyphs.leftMetricsKey</key>
      <string>A</string>
      <key>com.schriftgestaltung.Glyphs.rightMetricsKey</key>
      <string>A</string>
    </dict>
  </lib>
</glyph>
