<?xml version="1.0" encoding="UTF-8"?>
<glyph name="abreve" format="1">
  <advance width="522"/>
  <unicode hex="0103"/>
  <outline>
    <component base="a"/>
    <component base="brevecomb" xOffset="58"/>
  </outline>
</glyph>
