<?xml version="1.0" encoding="UTF-8"?>
<glyph name="B" format="1">
  <advance width="627"/>
  <unicode hex="0042"/>
  <note>
    B
  </note>
  <outline>
    <contour>
      <point x="382" y="0" type="line" smooth="yes"/>
      <point x="525" y="0"/>
      <point x="597" y="80"/>
      <point x="597" y="176" type="curve" smooth="yes"/>
      <point x="597" y="274"/>
      <point x="522" y="329"/>
      <point x="372" y="329" type="curve"/>
      <point x="372" y="314" type="line"/>
      <point x="514" y="314"/>
      <point x="567" y="393"/>
      <point x="567" y="478" type="curve" smooth="yes"/>
      <point x="567" y="567"/>
      <point x="508" y="640"/>
      <point x="361" y="640" type="curve" smooth="yes"/>
      <point x="58" y="640" type="line"/>
      <point x="58" y="0" type="line"/>
    </contour>
    <contour>
      <point x="233" y="509" type="line"/>
      <point x="286" y="509" type="line" smooth="yes"/>
      <point x="366" y="509"/>
      <point x="393" y="501"/>
      <point x="393" y="444" type="curve" smooth="yes"/>
      <point x="393" y="389"/>
      <point x="377" y="374"/>
      <point x="291" y="374" type="curve" smooth="yes"/>
      <point x="166" y="374" type="line"/>
      <point x="166" y="267" type="line"/>
      <point x="300" y="267" type="line" smooth="yes"/>
      <point x="410" y="267"/>
      <point x="423" y="245"/>
      <point x="423" y="195" type="curve" smooth="yes"/>
      <point x="423" y="144"/>
      <point x="387" y="133"/>
      <point x="319" y="133" type="curve" smooth="yes"/>
      <point x="233" y="133" type="line"/>
    </contour>
  </outline>
  <lib>
    <dict>
      <key>com.schriftgestaltung.Glyphs.leftMetricsKey</key>
      <string>H</string>
    </dict>
  </lib>
</glyph>
