<?xml version="1.0" encoding="UTF-8"?>
<glyph name="Dcaron" format="1">
  <advance width="665"/>
  <unicode hex="010E"/>
  <outline>
    <component base="D"/>
    <component base="caroncomb" xOffset="132" yOffset="180"/>
  </outline>
</glyph>
