<?xml version="1.0" encoding="UTF-8"?>
<glyph name="idotaccent" format="1">
  <advance width="270"/>
  <outline>
    <component base="idotless"/>
    <component base="dotaccentcomb" xOffset="39"/>
  </outline>
</glyph>
