<?xml version="1.0" encoding="UTF-8"?>
<glyph name="O" format="1">
  <advance width="687"/>
  <unicode hex="004F"/>
  <note>
    O
  </note>
  <outline>
    <contour>
      <point x="153" y="650"/>
      <point x="343" y="650" type="curve" smooth="yes"/>
      <point x="523" y="650"/>
      <point x="657" y="552"/>
      <point x="657" y="349" type="curve" smooth="yes"/>
      <point x="657" y="140"/>
      <point x="535" y="-10"/>
      <point x="343" y="-10" type="curve" smooth="yes"/>
      <point x="149" y="-10"/>
      <point x="24" y="140"/>
      <point x="30" y="349" type="curve" smooth="yes"/>
      <point x="36" y="552"/>
    </contour>
    <contour>
      <point x="265" y="135"/>
      <point x="343" y="135" type="curve" smooth="yes"/>
      <point x="430" y="135"/>
      <point x="478" y="210"/>
      <point x="472" y="356" type="curve" smooth="yes"/>
      <point x="468" y="452"/>
      <point x="442" y="506"/>
      <point x="343" y="506" type="curve" smooth="yes"/>
      <point x="243" y="506"/>
      <point x="219" y="452"/>
      <point x="215" y="356" type="curve" smooth="yes"/>
      <point x="209" y="210"/>
    </contour>
    <contour>
      <point x="343" y="0" type="move" name="bottom"/>
    </contour>
    <contour>
      <point x="343" y="320" type="move" name="center"/>
    </contour>
    <contour>
      <point x="624" y="10" type="move" name="ogonek"/>
    </contour>
    <contour>
      <point x="343" y="640" type="move" name="top"/>
    </contour>
    <contour>
      <point x="11" y="640" type="move" name="topleft"/>
    </contour>
    <contour>
      <point x="674" y="640" type="move" name="topright"/>
    </contour>
  </outline>
</glyph>
