<?xml version="1.0" encoding="UTF-8"?>
<glyph name="Racute" format="1">
  <advance width="608"/>
  <unicode hex="0154"/>
  <outline>
    <component base="R"/>
    <component base="acutecomb" xOffset="245" yOffset="180"/>
  </outline>
  <lib>
    <dict>
      <key>com.schriftgestaltung.Glyphs.ComponentInfo</key>
      <array>
        <dict>
          <key>alignment</key>
          <integer>-1</integer>
          <key>index</key>
          <integer>0</integer>
          <key>name</key>
          <string>R</string>
        </dict>
        <dict>
          <key>alignment</key>
          <integer>-1</integer>
          <key>index</key>
          <integer>1</integer>
          <key>name</key>
          <string>acutecomb</string>
        </dict>
      </array>
    </dict>
  </lib>
</glyph>
