<?xml version="1.0" encoding="UTF-8"?>
<glyph name="braceright" format="1">
  <advance width="402"/>
  <unicode hex="007D"/>
  <note>
    braceright
  </note>
  <outline>
    <component base="braceleft" xScale="-1" xOffset="402"/>
  </outline>
  <lib>
    <dict>
      <key>com.schriftgestaltung.Glyphs.ComponentInfo</key>
      <array>
        <dict>
          <key>alignment</key>
          <integer>-1</integer>
          <key>index</key>
          <integer>0</integer>
          <key>name</key>
          <string>braceleft</string>
        </dict>
      </array>
      <key>com.schriftgestaltung.Glyphs.lastChange</key>
      <string>2018-01-09 09:49:18 +0000</string>
      <key>com.typemytype.robofont.layerData</key>
      <dict>
        <key>Regular Nov 7 16, 23:20</key>
        <dict>
          <key>anchors</key>
          <array>
          </array>
          <key>components</key>
          <array>
          </array>
          <key>contours</key>
          <array>
            <dict>
              <key>points</key>
              <array>
                <dict>
                  <key>segmentType</key>
                  <string>line</string>
                  <key>smooth</key>
                  <integer>0</integer>
                  <key>x</key>
                  <integer>304</integer>
                  <key>y</key>
                  <integer>337</integer>
                </dict>
                <dict>
                  <key>smooth</key>
                  <integer>0</integer>
                  <key>x</key>
                  <integer>260</integer>
                  <key>y</key>
                  <integer>337</integer>
                </dict>
                <dict>
                  <key>smooth</key>
                  <integer>0</integer>
                  <key>x</key>
                  <integer>229</integer>
                  <key>y</key>
                  <integer>357</integer>
                </dict>
                <dict>
                  <key>segmentType</key>
                  <string>curve</string>
                  <key>smooth</key>
                  <integer>1</integer>
                  <key>x</key>
                  <integer>229</integer>
                  <key>y</key>
                  <integer>423</integer>
                </dict>
                <dict>
                  <key>segmentType</key>
                  <string>line</string>
                  <key>smooth</key>
                  <integer>1</integer>
                  <key>x</key>
                  <integer>229</integer>
                  <key>y</key>
                  <integer>532</integer>
                </dict>
                <dict>
                  <key>smooth</key>
                  <integer>0</integer>
                  <key>x</key>
                  <integer>229</integer>
                  <key>y</key>
                  <integer>647</integer>
                </dict>
                <dict>
                  <key>smooth</key>
                  <integer>0</integer>
                  <key>x</key>
                  <integer>150</integer>
                  <key>y</key>
                  <integer>671</integer>
                </dict>
                <dict>
                  <key>segmentType</key>
                  <string>curve</string>
                  <key>smooth</key>
                  <integer>1</integer>
                  <key>x</key>
                  <integer>82</integer>
                  <key>y</key>
                  <integer>671</integer>
                </dict>
                <dict>
                  <key>segmentType</key>
                  <string>line</string>
                  <key>smooth</key>
                  <integer>0</integer>
                  <key>x</key>
                  <integer>50</integer>
                  <key>y</key>
                  <integer>671</integer>
                </dict>
                <dict>
                  <key>segmentType</key>
                  <string>line</string>
                  <key>smooth</key>
                  <integer>0</integer>
                  <key>x</key>
                  <integer>50</integer>
                  <key>y</key>
                  <integer>632</integer>
                </dict>
                <dict>
                  <key>segmentType</key>
                  <string>line</string>
                  <key>smooth</key>
                  <integer>0</integer>
                  <key>x</key>
                  <integer>63</integer>
                  <key>y</key>
                  <integer>632</integer>
                </dict>
                <dict>
                  <key>segmentType</key>
                  <string>line</string>
                  <key>smooth</key>
                  <integer>0</integer>
                  <key>x</key>
                  <integer>80</integer>
                  <key>y</key>
                  <integer>632</integer>
                </dict>
                <dict>
                  <key>smooth</key>
                  <integer>0</integer>
                  <key>x</key>
                  <integer>180</integer>
                  <key>y</key>
                  <integer>632</integer>
                </dict>
                <dict>
                  <key>smooth</key>
                  <integer>0</integer>
                  <key>x</key>
                  <integer>187</integer>
                  <key>y</key>
                  <integer>574</integer>
                </dict>
                <dict>
                  <key>segmentType</key>
                  <string>curve</string>
                  <key>smooth</key>
                  <integer>1</integer>
                  <key>x</key>
                  <integer>188</integer>
                  <key>y</key>
                  <integer>509</integer>
                </dict>
                <dict>
                  <key>segmentType</key>
                  <string>line</string>
                  <key>smooth</key>
                  <integer>1</integer>
                  <key>x</key>
                  <integer>189</integer>
                  <key>y</key>
                  <integer>409</integer>
                </dict>
                <dict>
                  <key>smooth</key>
                  <integer>0</integer>
                  <key>x</key>
                  <integer>190</integer>
                  <key>y</key>
                  <integer>340</integer>
                </dict>
                <dict>
                  <key>smooth</key>
                  <integer>0</integer>
                  <key>x</key>
                  <integer>228</integer>
                  <key>y</key>
                  <integer>317</integer>
                </dict>
                <dict>
                  <key>segmentType</key>
                  <string>curve</string>
                  <key>smooth</key>
                  <integer>0</integer>
                  <key>x</key>
                  <integer>277</integer>
                  <key>y</key>
                  <integer>317</integer>
                </dict>
                <dict>
                  <key>segmentType</key>
                  <string>line</string>
                  <key>smooth</key>
                  <integer>0</integer>
                  <key>x</key>
                  <integer>277</integer>
                  <key>y</key>
                  <integer>316</integer>
                </dict>
                <dict>
                  <key>segmentType</key>
                  <string>line</string>
                  <key>smooth</key>
                  <integer>0</integer>
                  <key>x</key>
                  <integer>304</integer>
                  <key>y</key>
                  <integer>316</integer>
                </dict>
              </array>
            </dict>
            <dict>
              <key>points</key>
              <array>
                <dict>
                  <key>segmentType</key>
                  <string>line</string>
                  <key>smooth</key>
                  <integer>0</integer>
                  <key>x</key>
                  <integer>277</integer>
                  <key>y</key>
                  <integer>316</integer>
                </dict>
                <dict>
                  <key>segmentType</key>
                  <string>line</string>
                  <key>smooth</key>
                  <integer>0</integer>
                  <key>x</key>
                  <integer>277</integer>
                  <key>y</key>
                  <integer>315</integer>
                </dict>
                <dict>
                  <key>smooth</key>
                  <integer>0</integer>
                  <key>x</key>
                  <integer>228</integer>
                  <key>y</key>
                  <integer>315</integer>
                </dict>
                <dict>
                  <key>smooth</key>
                  <integer>0</integer>
                  <key>x</key>
                  <integer>190</integer>
                  <key>y</key>
                  <integer>292</integer>
                </dict>
                <dict>
                  <key>segmentType</key>
                  <string>curve</string>
                  <key>smooth</key>
                  <integer>1</integer>
                  <key>x</key>
                  <integer>189</integer>
                  <key>y</key>
                  <integer>223</integer>
                </dict>
                <dict>
                  <key>segmentType</key>
                  <string>line</string>
                  <key>smooth</key>
                  <integer>1</integer>
                  <key>x</key>
                  <integer>188</integer>
                  <key>y</key>
                  <integer>123</integer>
                </dict>
                <dict>
                  <key>smooth</key>
                  <integer>0</integer>
                  <key>x</key>
                  <integer>187</integer>
                  <key>y</key>
                  <integer>58</integer>
                </dict>
                <dict>
                  <key>smooth</key>
                  <integer>0</integer>
                  <key>x</key>
                  <integer>180</integer>
                  <key>y</key>
                  <integer>0</integer>
                </dict>
                <dict>
                  <key>segmentType</key>
                  <string>curve</string>
                  <key>smooth</key>
                  <integer>0</integer>
                  <key>x</key>
                  <integer>80</integer>
                  <key>y</key>
                  <integer>0</integer>
                </dict>
                <dict>
                  <key>segmentType</key>
                  <string>line</string>
                  <key>smooth</key>
                  <integer>0</integer>
                  <key>x</key>
                  <integer>63</integer>
                  <key>y</key>
                  <integer>0</integer>
                </dict>
                <dict>
                  <key>segmentType</key>
                  <string>line</string>
                  <key>smooth</key>
                  <integer>0</integer>
                  <key>x</key>
                  <integer>50</integer>
                  <key>y</key>
                  <integer>0</integer>
                </dict>
                <dict>
                  <key>segmentType</key>
                  <string>line</string>
                  <key>smooth</key>
                  <integer>0</integer>
                  <key>x</key>
                  <integer>50</integer>
                  <key>y</key>
                  <integer>-39</integer>
                </dict>
                <dict>
                  <key>segmentType</key>
                  <string>line</string>
                  <key>smooth</key>
                  <integer>1</integer>
                  <key>x</key>
                  <integer>82</integer>
                  <key>y</key>
                  <integer>-39</integer>
                </dict>
                <dict>
                  <key>smooth</key>
                  <integer>0</integer>
                  <key>x</key>
                  <integer>150</integer>
                  <key>y</key>
                  <integer>-39</integer>
                </dict>
                <dict>
                  <key>smooth</key>
                  <integer>0</integer>
                  <key>x</key>
                  <integer>229</integer>
                  <key>y</key>
                  <integer>-15</integer>
                </dict>
                <dict>
                  <key>segmentType</key>
                  <string>curve</string>
                  <key>smooth</key>
                  <integer>1</integer>
                  <key>x</key>
                  <integer>229</integer>
                  <key>y</key>
                  <integer>100</integer>
                </dict>
                <dict>
                  <key>segmentType</key>
                  <string>line</string>
                  <key>smooth</key>
                  <integer>1</integer>
                  <key>x</key>
                  <integer>229</integer>
                  <key>y</key>
                  <integer>209</integer>
                </dict>
                <dict>
                  <key>smooth</key>
                  <integer>0</integer>
                  <key>x</key>
                  <integer>229</integer>
                  <key>y</key>
                  <integer>275</integer>
                </dict>
                <dict>
                  <key>smooth</key>
                  <integer>0</integer>
                  <key>x</key>
                  <integer>260</integer>
                  <key>y</key>
                  <integer>295</integer>
                </dict>
                <dict>
                  <key>segmentType</key>
                  <string>curve</string>
                  <key>smooth</key>
                  <integer>0</integer>
                  <key>x</key>
                  <integer>304</integer>
                  <key>y</key>
                  <integer>295</integer>
                </dict>
                <dict>
                  <key>segmentType</key>
                  <string>line</string>
                  <key>smooth</key>
                  <integer>0</integer>
                  <key>x</key>
                  <integer>304</integer>
                  <key>y</key>
                  <integer>316</integer>
                </dict>
              </array>
            </dict>
          </array>
          <key>lib</key>
          <dict>
          </dict>
          <key>name</key>
          <string>braceright</string>
          <key>unicodes</key>
          <array>
          </array>
          <key>width</key>
          <integer>354</integer>
        </dict>
        <key>angulaire Jul 14 16, 17:23</key>
        <dict>
          <key>anchors</key>
          <array>
          </array>
          <key>components</key>
          <array>
          </array>
          <key>contours</key>
          <array>
            <dict>
              <key>points</key>
              <array>
                <dict>
                  <key>segmentType</key>
                  <string>line</string>
                  <key>smooth</key>
                  <integer>0</integer>
                  <key>x</key>
                  <integer>72</integer>
                  <key>y</key>
                  <integer>730</integer>
                </dict>
                <dict>
                  <key>segmentType</key>
                  <string>line</string>
                  <key>smooth</key>
                  <integer>1</integer>
                  <key>x</key>
                  <integer>139</integer>
                  <key>y</key>
                  <integer>730</integer>
                </dict>
                <dict>
                  <key>smooth</key>
                  <integer>0</integer>
                  <key>x</key>
                  <integer>213</integer>
                  <key>y</key>
                  <integer>730</integer>
                </dict>
                <dict>
                  <key>smooth</key>
                  <integer>0</integer>
                  <key>x</key>
                  <integer>268</integer>
                  <key>y</key>
                  <integer>701</integer>
                </dict>
                <dict>
                  <key>segmentType</key>
                  <string>curve</string>
                  <key>smooth</key>
                  <integer>1</integer>
                  <key>x</key>
                  <integer>302</integer>
                  <key>y</key>
                  <integer>642</integer>
                </dict>
                <dict>
                  <key>smooth</key>
                  <integer>0</integer>
                  <key>x</key>
                  <integer>316</integer>
                  <key>y</key>
                  <integer>620</integer>
                </dict>
                <dict>
                  <key>smooth</key>
                  <integer>0</integer>
                  <key>x</key>
                  <integer>323</integer>
                  <key>y</key>
                  <integer>587</integer>
                </dict>
                <dict>
                  <key>segmentType</key>
                  <string>curve</string>
                  <key>smooth</key>
                  <integer>1</integer>
                  <key>x</key>
                  <integer>323</integer>
                  <key>y</key>
                  <integer>544</integer>
                </dict>
                <dict>
                  <key>segmentType</key>
                  <string>line</string>
                  <key>smooth</key>
                  <integer>1</integer>
                  <key>x</key>
                  <integer>323</integer>
                  <key>y</key>
                  <integer>424</integer>
                </dict>
                <dict>
                  <key>smooth</key>
                  <integer>0</integer>
                  <key>x</key>
                  <integer>323</integer>
                  <key>y</key>
                  <integer>413</integer>
                </dict>
                <dict>
                  <key>smooth</key>
                  <integer>0</integer>
                  <key>x</key>
                  <integer>336</integer>
                  <key>y</key>
                  <integer>407</integer>
                </dict>
                <dict>
                  <key>segmentType</key>
                  <string>curve</string>
                  <key>smooth</key>
                  <integer>0</integer>
                  <key>x</key>
                  <integer>360</integer>
                  <key>y</key>
                  <integer>405</integer>
                </dict>
                <dict>
                  <key>segmentType</key>
                  <string>line</string>
                  <key>smooth</key>
                  <integer>1</integer>
                  <key>x</key>
                  <integer>360</integer>
                  <key>y</key>
                  <integer>329</integer>
                </dict>
                <dict>
                  <key>smooth</key>
                  <integer>0</integer>
                  <key>x</key>
                  <integer>360</integer>
                  <key>y</key>
                  <integer>327</integer>
                </dict>
                <dict>
                  <key>smooth</key>
                  <integer>0</integer>
                  <key>x</key>
                  <integer>350</integer>
                  <key>y</key>
                  <integer>324</integer>
                </dict>
                <dict>
                  <key>segmentType</key>
                  <string>curve</string>
                  <key>smooth</key>
                  <integer>0</integer>
                  <key>x</key>
                  <integer>330</integer>
                  <key>y</key>
                  <integer>320</integer>
                </dict>
                <dict>
                  <key>smooth</key>
                  <integer>0</integer>
                  <key>x</key>
                  <integer>326</integer>
                  <key>y</key>
                  <integer>315</integer>
                </dict>
                <dict>
                  <key>smooth</key>
                  <integer>0</integer>
                  <key>x</key>
                  <integer>323</integer>
                  <key>y</key>
                  <integer>311</integer>
                </dict>
                <dict>
                  <key>segmentType</key>
                  <string>curve</string>
                  <key>smooth</key>
                  <integer>1</integer>
                  <key>x</key>
                  <integer>323</integer>
                  <key>y</key>
                  <integer>306</integer>
                </dict>
                <dict>
                  <key>segmentType</key>
                  <string>line</string>
                  <key>smooth</key>
                  <integer>1</integer>
                  <key>x</key>
                  <integer>323</integer>
                  <key>y</key>
                  <integer>179</integer>
                </dict>
                <dict>
                  <key>smooth</key>
                  <integer>0</integer>
                  <key>x</key>
                  <integer>323</integer>
                  <key>y</key>
                  <integer>95</integer>
                </dict>
                <dict>
                  <key>smooth</key>
                  <integer>0</integer>
                  <key>x</key>
                  <integer>285</integer>
                  <key>y</key>
                  <integer>39</integer>
                </dict>
                <dict>
                  <key>segmentType</key>
                  <string>curve</string>
                  <key>smooth</key>
                  <integer>1</integer>
                  <key>x</key>
                  <integer>207</integer>
                  <key>y</key>
                  <integer>12</integer>
                </dict>
                <dict>
                  <key>smooth</key>
                  <integer>0</integer>
                  <key>x</key>
                  <integer>183</integer>
                  <key>y</key>
                  <integer>4</integer>
                </dict>
                <dict>
                  <key>smooth</key>
                  <integer>0</integer>
                  <key>x</key>
                  <integer>152</integer>
                  <key>y</key>
                  <integer>0</integer>
                </dict>
                <dict>
                  <key>segmentType</key>
                  <string>curve</string>
                  <key>smooth</key>
                  <integer>1</integer>
                  <key>x</key>
                  <integer>114</integer>
                  <key>y</key>
                  <integer>0</integer>
                </dict>
                <dict>
                  <key>segmentType</key>
                  <string>line</string>
                  <key>smooth</key>
                  <integer>0</integer>
                  <key>x</key>
                  <integer>74</integer>
                  <key>y</key>
                  <integer>0</integer>
                </dict>
                <dict>
                  <key>segmentType</key>
                  <string>line</string>
                  <key>smooth</key>
                  <integer>0</integer>
                  <key>x</key>
                  <integer>72</integer>
                  <key>y</key>
                  <integer>2</integer>
                </dict>
                <dict>
                  <key>segmentType</key>
                  <string>line</string>
                  <key>smooth</key>
                  <integer>0</integer>
                  <key>x</key>
                  <integer>70</integer>
                  <key>y</key>
                  <integer>2</integer>
                </dict>
                <dict>
                  <key>smooth</key>
                  <integer>0</integer>
                  <key>x</key>
                  <integer>70</integer>
                  <key>y</key>
                  <integer>37</integer>
                </dict>
                <dict>
                  <key>smooth</key>
                  <integer>0</integer>
                  <key>x</key>
                  <integer>86</integer>
                  <key>y</key>
                  <integer>62</integer>
                </dict>
                <dict>
                  <key>segmentType</key>
                  <string>curve</string>
                  <key>smooth</key>
                  <integer>0</integer>
                  <key>x</key>
                  <integer>119</integer>
                  <key>y</key>
                  <integer>77</integer>
                </dict>
                <dict>
                  <key>smooth</key>
                  <integer>0</integer>
                  <key>x</key>
                  <integer>162</integer>
                  <key>y</key>
                  <integer>84</integer>
                </dict>
                <dict>
                  <key>smooth</key>
                  <integer>0</integer>
                  <key>x</key>
                  <integer>193</integer>
                  <key>y</key>
                  <integer>96</integer>
                </dict>
                <dict>
                  <key>segmentType</key>
                  <string>curve</string>
                  <key>smooth</key>
                  <integer>1</integer>
                  <key>x</key>
                  <integer>212</integer>
                  <key>y</key>
                  <integer>115</integer>
                </dict>
                <dict>
                  <key>smooth</key>
                  <integer>0</integer>
                  <key>x</key>
                  <integer>232</integer>
                  <key>y</key>
                  <integer>135</integer>
                </dict>
                <dict>
                  <key>smooth</key>
                  <integer>0</integer>
                  <key>x</key>
                  <integer>241</integer>
                  <key>y</key>
                  <integer>162</integer>
                </dict>
                <dict>
                  <key>segmentType</key>
                  <string>curve</string>
                  <key>smooth</key>
                  <integer>1</integer>
                  <key>x</key>
                  <integer>241</integer>
                  <key>y</key>
                  <integer>201</integer>
                </dict>
                <dict>
                  <key>segmentType</key>
                  <string>line</string>
                  <key>smooth</key>
                  <integer>1</integer>
                  <key>x</key>
                  <integer>241</integer>
                  <key>y</key>
                  <integer>283</integer>
                </dict>
                <dict>
                  <key>smooth</key>
                  <integer>0</integer>
                  <key>x</key>
                  <integer>241</integer>
                  <key>y</key>
                  <integer>324</integer>
                </dict>
                <dict>
                  <key>smooth</key>
                  <integer>0</integer>
                  <key>x</key>
                  <integer>246</integer>
                  <key>y</key>
                  <integer>352</integer>
                </dict>
                <dict>
                  <key>segmentType</key>
                  <string>curve</string>
                  <key>smooth</key>
                  <integer>0</integer>
                  <key>x</key>
                  <integer>256</integer>
                  <key>y</key>
                  <integer>366</integer>
                </dict>
                <dict>
                  <key>smooth</key>
                  <integer>0</integer>
                  <key>x</key>
                  <integer>246</integer>
                  <key>y</key>
                  <integer>378</integer>
                </dict>
                <dict>
                  <key>smooth</key>
                  <integer>0</integer>
                  <key>x</key>
                  <integer>241</integer>
                  <key>y</key>
                  <integer>407</integer>
                </dict>
                <dict>
                  <key>segmentType</key>
                  <string>curve</string>
                  <key>smooth</key>
                  <integer>1</integer>
                  <key>x</key>
                  <integer>241</integer>
                  <key>y</key>
                  <integer>454</integer>
                </dict>
                <dict>
                  <key>segmentType</key>
                  <string>line</string>
                  <key>smooth</key>
                  <integer>1</integer>
                  <key>x</key>
                  <integer>241</integer>
                  <key>y</key>
                  <integer>531</integer>
                </dict>
                <dict>
                  <key>smooth</key>
                  <integer>0</integer>
                  <key>x</key>
                  <integer>241</integer>
                  <key>y</key>
                  <integer>589</integer>
                </dict>
                <dict>
                  <key>smooth</key>
                  <integer>0</integer>
                  <key>x</key>
                  <integer>216</integer>
                  <key>y</key>
                  <integer>627</integer>
                </dict>
                <dict>
                  <key>segmentType</key>
                  <string>curve</string>
                  <key>smooth</key>
                  <integer>0</integer>
                  <key>x</key>
                  <integer>165</integer>
                  <key>y</key>
                  <integer>644</integer>
                </dict>
                <dict>
                  <key>smooth</key>
                  <integer>0</integer>
                  <key>x</key>
                  <integer>117</integer>
                  <key>y</key>
                  <integer>652</integer>
                </dict>
                <dict>
                  <key>smooth</key>
                  <integer>0</integer>
                  <key>x</key>
                  <integer>93</integer>
                  <key>y</key>
                  <integer>662</integer>
                </dict>
                <dict>
                  <key>segmentType</key>
                  <string>curve</string>
                  <key>smooth</key>
                  <integer>0</integer>
                  <key>x</key>
                  <integer>93</integer>
                  <key>y</key>
                  <integer>672</integer>
                </dict>
                <dict>
                  <key>smooth</key>
                  <integer>0</integer>
                  <key>x</key>
                  <integer>77</integer>
                  <key>y</key>
                  <integer>687</integer>
                </dict>
                <dict>
                  <key>smooth</key>
                  <integer>0</integer>
                  <key>x</key>
                  <integer>70</integer>
                  <key>y</key>
                  <integer>706</integer>
                </dict>
                <dict>
                  <key>segmentType</key>
                  <string>curve</string>
                  <key>smooth</key>
                  <integer>0</integer>
                  <key>x</key>
                  <integer>70</integer>
                  <key>y</key>
                  <integer>728</integer>
                </dict>
              </array>
            </dict>
          </array>
          <key>lib</key>
          <dict>
          </dict>
          <key>name</key>
          <string>braceright</string>
          <key>unicodes</key>
          <array>
          </array>
          <key>width</key>
          <integer>430</integer>
        </dict>
        <key>angulaire Jul 14 16, 17:24</key>
        <dict>
          <key>anchors</key>
          <array>
          </array>
          <key>components</key>
          <array>
          </array>
          <key>contours</key>
          <array>
            <dict>
              <key>points</key>
              <array>
                <dict>
                  <key>smooth</key>
                  <integer>0</integer>
                  <key>x</key>
                  <integer>79</integer>
                  <key>y</key>
                  <integer>40</integer>
                </dict>
                <dict>
                  <key>smooth</key>
                  <integer>0</integer>
                  <key>x</key>
                  <integer>40</integer>
                  <key>y</key>
                  <integer>56</integer>
                </dict>
                <dict>
                  <key>segmentType</key>
                  <string>curve</string>
                  <key>smooth</key>
                  <integer>0</integer>
                  <key>x</key>
                  <integer>40</integer>
                  <key>y</key>
                  <integer>-28</integer>
                </dict>
                <dict>
                  <key>segmentType</key>
                  <string>line</string>
                  <key>smooth</key>
                  <integer>0</integer>
                  <key>x</key>
                  <integer>42</integer>
                  <key>y</key>
                  <integer>-30</integer>
                </dict>
                <dict>
                  <key>segmentType</key>
                  <string>line</string>
                  <key>smooth</key>
                  <integer>1</integer>
                  <key>x</key>
                  <integer>144</integer>
                  <key>y</key>
                  <integer>-30</integer>
                </dict>
                <dict>
                  <key>smooth</key>
                  <integer>0</integer>
                  <key>x</key>
                  <integer>212</integer>
                  <key>y</key>
                  <integer>-30</integer>
                </dict>
                <dict>
                  <key>smooth</key>
                  <integer>0</integer>
                  <key>x</key>
                  <integer>291</integer>
                  <key>y</key>
                  <integer>-5</integer>
                </dict>
                <dict>
                  <key>segmentType</key>
                  <string>curve</string>
                  <key>smooth</key>
                  <integer>1</integer>
                  <key>x</key>
                  <integer>291</integer>
                  <key>y</key>
                  <integer>110</integer>
                </dict>
                <dict>
                  <key>segmentType</key>
                  <string>line</string>
                  <key>smooth</key>
                  <integer>1</integer>
                  <key>x</key>
                  <integer>291</integer>
                  <key>y</key>
                  <integer>241</integer>
                </dict>
                <dict>
                  <key>smooth</key>
                  <integer>0</integer>
                  <key>x</key>
                  <integer>291</integer>
                  <key>y</key>
                  <integer>277</integer>
                </dict>
                <dict>
                  <key>smooth</key>
                  <integer>0</integer>
                  <key>x</key>
                  <integer>336</integer>
                  <key>y</key>
                  <integer>295</integer>
                </dict>
                <dict>
                  <key>segmentType</key>
                  <string>curve</string>
                  <key>smooth</key>
                  <integer>0</integer>
                  <key>x</key>
                  <integer>360</integer>
                  <key>y</key>
                  <integer>295</integer>
                </dict>
                <dict>
                  <key>segmentType</key>
                  <string>line</string>
                  <key>smooth</key>
                  <integer>0</integer>
                  <key>x</key>
                  <integer>360</integer>
                  <key>y</key>
                  <integer>357</integer>
                </dict>
                <dict>
                  <key>smooth</key>
                  <integer>0</integer>
                  <key>x</key>
                  <integer>336</integer>
                  <key>y</key>
                  <integer>357</integer>
                </dict>
                <dict>
                  <key>smooth</key>
                  <integer>0</integer>
                  <key>x</key>
                  <integer>291</integer>
                  <key>y</key>
                  <integer>375</integer>
                </dict>
                <dict>
                  <key>segmentType</key>
                  <string>curve</string>
                  <key>smooth</key>
                  <integer>1</integer>
                  <key>x</key>
                  <integer>291</integer>
                  <key>y</key>
                  <integer>411</integer>
                </dict>
                <dict>
                  <key>segmentType</key>
                  <string>line</string>
                  <key>smooth</key>
                  <integer>1</integer>
                  <key>x</key>
                  <integer>291</integer>
                  <key>y</key>
                  <integer>542</integer>
                </dict>
                <dict>
                  <key>smooth</key>
                  <integer>0</integer>
                  <key>x</key>
                  <integer>291</integer>
                  <key>y</key>
                  <integer>657</integer>
                </dict>
                <dict>
                  <key>smooth</key>
                  <integer>0</integer>
                  <key>x</key>
                  <integer>212</integer>
                  <key>y</key>
                  <integer>682</integer>
                </dict>
                <dict>
                  <key>segmentType</key>
                  <string>curve</string>
                  <key>smooth</key>
                  <integer>1</integer>
                  <key>x</key>
                  <integer>144</integer>
                  <key>y</key>
                  <integer>682</integer>
                </dict>
                <dict>
                  <key>segmentType</key>
                  <string>line</string>
                  <key>smooth</key>
                  <integer>0</integer>
                  <key>x</key>
                  <integer>42</integer>
                  <key>y</key>
                  <integer>682</integer>
                </dict>
                <dict>
                  <key>segmentType</key>
                  <string>line</string>
                  <key>smooth</key>
                  <integer>0</integer>
                  <key>x</key>
                  <integer>40</integer>
                  <key>y</key>
                  <integer>680</integer>
                </dict>
                <dict>
                  <key>smooth</key>
                  <integer>0</integer>
                  <key>x</key>
                  <integer>40</integer>
                  <key>y</key>
                  <integer>596</integer>
                </dict>
                <dict>
                  <key>smooth</key>
                  <integer>0</integer>
                  <key>x</key>
                  <integer>79</integer>
                  <key>y</key>
                  <integer>612</integer>
                </dict>
                <dict>
                  <key>segmentType</key>
                  <string>curve</string>
                  <key>smooth</key>
                  <integer>1</integer>
                  <key>x</key>
                  <integer>142</integer>
                  <key>y</key>
                  <integer>612</integer>
                </dict>
                <dict>
                  <key>smooth</key>
                  <integer>0</integer>
                  <key>x</key>
                  <integer>188</integer>
                  <key>y</key>
                  <integer>612</integer>
                </dict>
                <dict>
                  <key>smooth</key>
                  <integer>0</integer>
                  <key>x</key>
                  <integer>223</integer>
                  <key>y</key>
                  <integer>584</integer>
                </dict>
                <dict>
                  <key>segmentType</key>
                  <string>curve</string>
                  <key>smooth</key>
                  <integer>1</integer>
                  <key>x</key>
                  <integer>224</integer>
                  <key>y</key>
                  <integer>519</integer>
                </dict>
                <dict>
                  <key>segmentType</key>
                  <string>line</string>
                  <key>smooth</key>
                  <integer>1</integer>
                  <key>x</key>
                  <integer>225</integer>
                  <key>y</key>
                  <integer>419</integer>
                </dict>
                <dict>
                  <key>smooth</key>
                  <integer>0</integer>
                  <key>x</key>
                  <integer>226</integer>
                  <key>y</key>
                  <integer>350</integer>
                </dict>
                <dict>
                  <key>smooth</key>
                  <integer>0</integer>
                  <key>x</key>
                  <integer>294</integer>
                  <key>y</key>
                  <integer>307</integer>
                </dict>
                <dict>
                  <key>segmentType</key>
                  <string>curve</string>
                  <key>smooth</key>
                  <integer>0</integer>
                  <key>x</key>
                  <integer>343</integer>
                  <key>y</key>
                  <integer>307</integer>
                </dict>
                <dict>
                  <key>segmentType</key>
                  <string>line</string>
                  <key>smooth</key>
                  <integer>0</integer>
                  <key>x</key>
                  <integer>343</integer>
                  <key>y</key>
                  <integer>345</integer>
                </dict>
                <dict>
                  <key>smooth</key>
                  <integer>0</integer>
                  <key>x</key>
                  <integer>294</integer>
                  <key>y</key>
                  <integer>345</integer>
                </dict>
                <dict>
                  <key>smooth</key>
                  <integer>0</integer>
                  <key>x</key>
                  <integer>225</integer>
                  <key>y</key>
                  <integer>302</integer>
                </dict>
                <dict>
                  <key>segmentType</key>
                  <string>curve</string>
                  <key>smooth</key>
                  <integer>0</integer>
                  <key>x</key>
                  <integer>225</integer>
                  <key>y</key>
                  <integer>233</integer>
                </dict>
                <dict>
                  <key>segmentType</key>
                  <string>line</string>
                  <key>smooth</key>
                  <integer>1</integer>
                  <key>x</key>
                  <integer>224</integer>
                  <key>y</key>
                  <integer>133</integer>
                </dict>
                <dict>
                  <key>smooth</key>
                  <integer>0</integer>
                  <key>x</key>
                  <integer>223</integer>
                  <key>y</key>
                  <integer>68</integer>
                </dict>
                <dict>
                  <key>smooth</key>
                  <integer>0</integer>
                  <key>x</key>
                  <integer>188</integer>
                  <key>y</key>
                  <integer>40</integer>
                </dict>
                <dict>
                  <key>segmentType</key>
                  <string>curve</string>
                  <key>smooth</key>
                  <integer>1</integer>
                  <key>x</key>
                  <integer>142</integer>
                  <key>y</key>
                  <integer>40</integer>
                </dict>
              </array>
            </dict>
          </array>
          <key>lib</key>
          <dict>
          </dict>
          <key>name</key>
          <string>braceright</string>
          <key>unicodes</key>
          <array>
          </array>
          <key>width</key>
          <integer>430</integer>
        </dict>
      </dict>
    </dict>
  </lib>
</glyph>
