<?xml version="1.0" encoding="UTF-8"?>
<glyph name="Cacute" format="1">
  <advance width="615"/>
  <unicode hex="0106"/>
  <outline>
    <component base="C"/>
    <component base="acutecomb" xOffset="297" yOffset="180"/>
  </outline>
  <lib>
    <dict>
      <key>com.schriftgestaltung.Glyphs.lastChange</key>
      <string>2018-01-09 21:58:05 +0000</string>
    </dict>
  </lib>
</glyph>
