<?xml version="1.0" encoding="UTF-8"?>
<glyph name="H" format="1">
  <advance width="680"/>
  <unicode hex="0048"/>
  <note>
    H
  </note>
  <outline>
    <contour>
      <point x="592" y="0" type="line"/>
      <point x="507" y="0" type="line"/>
      <point x="507" y="288" type="line"/>
      <point x="173" y="288" type="line"/>
      <point x="173" y="0" type="line"/>
      <point x="88" y="0" type="line"/>
      <point x="88" y="640" type="line"/>
      <point x="173" y="640" type="line"/>
      <point x="173" y="362" type="line"/>
      <point x="507" y="362" type="line"/>
      <point x="507" y="640" type="line"/>
      <point x="592" y="640" type="line"/>
    </contour>
    <contour>
      <point x="340" y="470" type="move" name="center"/>
    </contour>
    <contour>
      <point x="340" y="640" type="move" name="top"/>
    </contour>
  </outline>
  <lib>
    <dict>
      <key>com.schriftgestaltung.Glyphs.lastChange</key>
      <string>2018-01-09 09:49:18 +0000</string>
      <key>com.typemytype.robofont.layerData</key>
      <dict>
        <key>Regular May 16 16, 10:54</key>
        <dict>
          <key>anchors</key>
          <array>
          </array>
          <key>components</key>
          <array>
          </array>
          <key>contours</key>
          <array>
            <dict>
              <key>points</key>
              <array>
                <dict>
                  <key>segmentType</key>
                  <string>line</string>
                  <key>smooth</key>
                  <integer>0</integer>
                  <key>x</key>
                  <integer>50</integer>
                  <key>y</key>
                  <integer>686</integer>
                </dict>
                <dict>
                  <key>segmentType</key>
                  <string>line</string>
                  <key>smooth</key>
                  <integer>0</integer>
                  <key>x</key>
                  <integer>54</integer>
                  <key>y</key>
                  <integer>690</integer>
                </dict>
                <dict>
                  <key>segmentType</key>
                  <string>line</string>
                  <key>smooth</key>
                  <integer>0</integer>
                  <key>x</key>
                  <integer>65</integer>
                  <key>y</key>
                  <integer>690</integer>
                </dict>
                <dict>
                  <key>smooth</key>
                  <integer>0</integer>
                  <key>x</key>
                  <integer>111</integer>
                  <key>y</key>
                  <integer>684</integer>
                </dict>
                <dict>
                  <key>smooth</key>
                  <integer>0</integer>
                  <key>x</key>
                  <integer>134</integer>
                  <key>y</key>
                  <integer>662</integer>
                </dict>
                <dict>
                  <key>segmentType</key>
                  <string>curve</string>
                  <key>smooth</key>
                  <integer>1</integer>
                  <key>x</key>
                  <integer>134</integer>
                  <key>y</key>
                  <integer>624</integer>
                </dict>
                <dict>
                  <key>segmentType</key>
                  <string>line</string>
                  <key>smooth</key>
                  <integer>0</integer>
                  <key>x</key>
                  <integer>134</integer>
                  <key>y</key>
                  <integer>388</integer>
                </dict>
                <dict>
                  <key>segmentType</key>
                  <string>line</string>
                  <key>smooth</key>
                  <integer>0</integer>
                  <key>x</key>
                  <integer>384</integer>
                  <key>y</key>
                  <integer>388</integer>
                </dict>
                <dict>
                  <key>segmentType</key>
                  <string>line</string>
                  <key>smooth</key>
                  <integer>0</integer>
                  <key>x</key>
                  <integer>384</integer>
                  <key>y</key>
                  <integer>686</integer>
                </dict>
                <dict>
                  <key>segmentType</key>
                  <string>line</string>
                  <key>smooth</key>
                  <integer>0</integer>
                  <key>x</key>
                  <integer>388</integer>
                  <key>y</key>
                  <integer>690</integer>
                </dict>
                <dict>
                  <key>segmentType</key>
                  <string>line</string>
                  <key>smooth</key>
                  <integer>0</integer>
                  <key>x</key>
                  <integer>399</integer>
                  <key>y</key>
                  <integer>690</integer>
                </dict>
                <dict>
                  <key>smooth</key>
                  <integer>0</integer>
                  <key>x</key>
                  <integer>446</integer>
                  <key>y</key>
                  <integer>684</integer>
                </dict>
                <dict>
                  <key>smooth</key>
                  <integer>0</integer>
                  <key>x</key>
                  <integer>470</integer>
                  <key>y</key>
                  <integer>661</integer>
                </dict>
                <dict>
                  <key>segmentType</key>
                  <string>curve</string>
                  <key>smooth</key>
                  <integer>1</integer>
                  <key>x</key>
                  <integer>470</integer>
                  <key>y</key>
                  <integer>618</integer>
                </dict>
                <dict>
                  <key>segmentType</key>
                  <string>line</string>
                  <key>smooth</key>
                  <integer>0</integer>
                  <key>x</key>
                  <integer>470</integer>
                  <key>y</key>
                  <integer>-6</integer>
                </dict>
                <dict>
                  <key>segmentType</key>
                  <string>line</string>
                  <key>smooth</key>
                  <integer>0</integer>
                  <key>x</key>
                  <integer>467</integer>
                  <key>y</key>
                  <integer>-10</integer>
                </dict>
                <dict>
                  <key>smooth</key>
                  <integer>0</integer>
                  <key>x</key>
                  <integer>411</integer>
                  <key>y</key>
                  <integer>-10</integer>
                </dict>
                <dict>
                  <key>smooth</key>
                  <integer>0</integer>
                  <key>x</key>
                  <integer>384</integer>
                  <key>y</key>
                  <integer>16</integer>
                </dict>
                <dict>
                  <key>segmentType</key>
                  <string>curve</string>
                  <key>smooth</key>
                  <integer>1</integer>
                  <key>x</key>
                  <integer>384</integer>
                  <key>y</key>
                  <integer>69</integer>
                </dict>
                <dict>
                  <key>segmentType</key>
                  <string>line</string>
                  <key>smooth</key>
                  <integer>0</integer>
                  <key>x</key>
                  <integer>384</integer>
                  <key>y</key>
                  <integer>305</integer>
                </dict>
                <dict>
                  <key>segmentType</key>
                  <string>line</string>
                  <key>smooth</key>
                  <integer>0</integer>
                  <key>x</key>
                  <integer>134</integer>
                  <key>y</key>
                  <integer>305</integer>
                </dict>
                <dict>
                  <key>segmentType</key>
                  <string>line</string>
                  <key>smooth</key>
                  <integer>0</integer>
                  <key>x</key>
                  <integer>134</integer>
                  <key>y</key>
                  <integer>-6</integer>
                </dict>
                <dict>
                  <key>segmentType</key>
                  <string>line</string>
                  <key>smooth</key>
                  <integer>0</integer>
                  <key>x</key>
                  <integer>131</integer>
                  <key>y</key>
                  <integer>-10</integer>
                </dict>
                <dict>
                  <key>smooth</key>
                  <integer>0</integer>
                  <key>x</key>
                  <integer>90</integer>
                  <key>y</key>
                  <integer>-10</integer>
                </dict>
                <dict>
                  <key>smooth</key>
                  <integer>0</integer>
                  <key>x</key>
                  <integer>65</integer>
                  <key>y</key>
                  <integer>5</integer>
                </dict>
                <dict>
                  <key>segmentType</key>
                  <string>curve</string>
                  <key>smooth</key>
                  <integer>0</integer>
                  <key>x</key>
                  <integer>54</integer>
                  <key>y</key>
                  <integer>36</integer>
                </dict>
                <dict>
                  <key>segmentType</key>
                  <string>line</string>
                  <key>smooth</key>
                  <integer>0</integer>
                  <key>x</key>
                  <integer>50</integer>
                  <key>y</key>
                  <integer>51</integer>
                </dict>
              </array>
            </dict>
          </array>
          <key>lib</key>
          <dict>
          </dict>
          <key>name</key>
          <string>H</string>
          <key>unicodes</key>
          <array>
          </array>
          <key>width</key>
          <integer>520</integer>
        </dict>
        <key>SemiBold May 18 16, 11:09</key>
        <dict>
          <key>anchors</key>
          <array>
          </array>
          <key>components</key>
          <array>
          </array>
          <key>contours</key>
          <array>
            <dict>
              <key>points</key>
              <array>
                <dict>
                  <key>segmentType</key>
                  <string>line</string>
                  <key>smooth</key>
                  <integer>0</integer>
                  <key>x</key>
                  <integer>50</integer>
                  <key>y</key>
                  <integer>686</integer>
                </dict>
                <dict>
                  <key>segmentType</key>
                  <string>line</string>
                  <key>smooth</key>
                  <integer>0</integer>
                  <key>x</key>
                  <integer>54</integer>
                  <key>y</key>
                  <integer>690</integer>
                </dict>
                <dict>
                  <key>segmentType</key>
                  <string>line</string>
                  <key>smooth</key>
                  <integer>0</integer>
                  <key>x</key>
                  <integer>65</integer>
                  <key>y</key>
                  <integer>690</integer>
                </dict>
                <dict>
                  <key>smooth</key>
                  <integer>0</integer>
                  <key>x</key>
                  <integer>111</integer>
                  <key>y</key>
                  <integer>684</integer>
                </dict>
                <dict>
                  <key>smooth</key>
                  <integer>0</integer>
                  <key>x</key>
                  <integer>134</integer>
                  <key>y</key>
                  <integer>662</integer>
                </dict>
                <dict>
                  <key>segmentType</key>
                  <string>curve</string>
                  <key>smooth</key>
                  <integer>1</integer>
                  <key>x</key>
                  <integer>134</integer>
                  <key>y</key>
                  <integer>624</integer>
                </dict>
                <dict>
                  <key>segmentType</key>
                  <string>line</string>
                  <key>smooth</key>
                  <integer>0</integer>
                  <key>x</key>
                  <integer>134</integer>
                  <key>y</key>
                  <integer>375</integer>
                </dict>
                <dict>
                  <key>segmentType</key>
                  <string>line</string>
                  <key>smooth</key>
                  <integer>0</integer>
                  <key>x</key>
                  <integer>404</integer>
                  <key>y</key>
                  <integer>375</integer>
                </dict>
                <dict>
                  <key>segmentType</key>
                  <string>line</string>
                  <key>smooth</key>
                  <integer>0</integer>
                  <key>x</key>
                  <integer>404</integer>
                  <key>y</key>
                  <integer>686</integer>
                </dict>
                <dict>
                  <key>segmentType</key>
                  <string>line</string>
                  <key>smooth</key>
                  <integer>0</integer>
                  <key>x</key>
                  <integer>408</integer>
                  <key>y</key>
                  <integer>690</integer>
                </dict>
                <dict>
                  <key>segmentType</key>
                  <string>line</string>
                  <key>smooth</key>
                  <integer>0</integer>
                  <key>x</key>
                  <integer>419</integer>
                  <key>y</key>
                  <integer>690</integer>
                </dict>
                <dict>
                  <key>smooth</key>
                  <integer>0</integer>
                  <key>x</key>
                  <integer>466</integer>
                  <key>y</key>
                  <integer>684</integer>
                </dict>
                <dict>
                  <key>smooth</key>
                  <integer>0</integer>
                  <key>x</key>
                  <integer>490</integer>
                  <key>y</key>
                  <integer>661</integer>
                </dict>
                <dict>
                  <key>segmentType</key>
                  <string>curve</string>
                  <key>smooth</key>
                  <integer>1</integer>
                  <key>x</key>
                  <integer>490</integer>
                  <key>y</key>
                  <integer>618</integer>
                </dict>
                <dict>
                  <key>segmentType</key>
                  <string>line</string>
                  <key>smooth</key>
                  <integer>0</integer>
                  <key>x</key>
                  <integer>490</integer>
                  <key>y</key>
                  <integer>-6</integer>
                </dict>
                <dict>
                  <key>segmentType</key>
                  <string>line</string>
                  <key>smooth</key>
                  <integer>0</integer>
                  <key>x</key>
                  <integer>487</integer>
                  <key>y</key>
                  <integer>-10</integer>
                </dict>
                <dict>
                  <key>smooth</key>
                  <integer>0</integer>
                  <key>x</key>
                  <integer>431</integer>
                  <key>y</key>
                  <integer>-10</integer>
                </dict>
                <dict>
                  <key>smooth</key>
                  <integer>0</integer>
                  <key>x</key>
                  <integer>404</integer>
                  <key>y</key>
                  <integer>16</integer>
                </dict>
                <dict>
                  <key>segmentType</key>
                  <string>curve</string>
                  <key>smooth</key>
                  <integer>1</integer>
                  <key>x</key>
                  <integer>404</integer>
                  <key>y</key>
                  <integer>69</integer>
                </dict>
                <dict>
                  <key>segmentType</key>
                  <string>line</string>
                  <key>smooth</key>
                  <integer>0</integer>
                  <key>x</key>
                  <integer>404</integer>
                  <key>y</key>
                  <integer>292</integer>
                </dict>
                <dict>
                  <key>segmentType</key>
                  <string>line</string>
                  <key>smooth</key>
                  <integer>0</integer>
                  <key>x</key>
                  <integer>134</integer>
                  <key>y</key>
                  <integer>292</integer>
                </dict>
                <dict>
                  <key>segmentType</key>
                  <string>line</string>
                  <key>smooth</key>
                  <integer>0</integer>
                  <key>x</key>
                  <integer>134</integer>
                  <key>y</key>
                  <integer>-6</integer>
                </dict>
                <dict>
                  <key>segmentType</key>
                  <string>line</string>
                  <key>smooth</key>
                  <integer>0</integer>
                  <key>x</key>
                  <integer>131</integer>
                  <key>y</key>
                  <integer>-10</integer>
                </dict>
                <dict>
                  <key>smooth</key>
                  <integer>0</integer>
                  <key>x</key>
                  <integer>90</integer>
                  <key>y</key>
                  <integer>-10</integer>
                </dict>
                <dict>
                  <key>smooth</key>
                  <integer>0</integer>
                  <key>x</key>
                  <integer>65</integer>
                  <key>y</key>
                  <integer>5</integer>
                </dict>
                <dict>
                  <key>segmentType</key>
                  <string>curve</string>
                  <key>smooth</key>
                  <integer>0</integer>
                  <key>x</key>
                  <integer>54</integer>
                  <key>y</key>
                  <integer>36</integer>
                </dict>
                <dict>
                  <key>segmentType</key>
                  <string>line</string>
                  <key>smooth</key>
                  <integer>0</integer>
                  <key>x</key>
                  <integer>50</integer>
                  <key>y</key>
                  <integer>51</integer>
                </dict>
              </array>
            </dict>
          </array>
          <key>lib</key>
          <dict>
          </dict>
          <key>name</key>
          <string>H</string>
          <key>unicodes</key>
          <array>
          </array>
          <key>width</key>
          <integer>540</integer>
        </dict>
        <key>SemiBold May 18 16, 11:13</key>
        <dict>
          <key>anchors</key>
          <array>
          </array>
          <key>components</key>
          <array>
          </array>
          <key>contours</key>
          <array>
            <dict>
              <key>points</key>
              <array>
                <dict>
                  <key>segmentType</key>
                  <string>line</string>
                  <key>smooth</key>
                  <integer>0</integer>
                  <key>x</key>
                  <integer>463</integer>
                  <key>y</key>
                  <integer>690</integer>
                </dict>
                <dict>
                  <key>smooth</key>
                  <integer>0</integer>
                  <key>x</key>
                  <integer>416</integer>
                  <key>y</key>
                  <integer>684</integer>
                </dict>
                <dict>
                  <key>smooth</key>
                  <integer>0</integer>
                  <key>x</key>
                  <integer>392</integer>
                  <key>y</key>
                  <integer>661</integer>
                </dict>
                <dict>
                  <key>segmentType</key>
                  <string>curve</string>
                  <key>smooth</key>
                  <integer>1</integer>
                  <key>x</key>
                  <integer>392</integer>
                  <key>y</key>
                  <integer>618</integer>
                </dict>
                <dict>
                  <key>segmentType</key>
                  <string>line</string>
                  <key>smooth</key>
                  <integer>0</integer>
                  <key>x</key>
                  <integer>392</integer>
                  <key>y</key>
                  <integer>375</integer>
                </dict>
                <dict>
                  <key>segmentType</key>
                  <string>line</string>
                  <key>smooth</key>
                  <integer>0</integer>
                  <key>x</key>
                  <integer>134</integer>
                  <key>y</key>
                  <integer>375</integer>
                </dict>
                <dict>
                  <key>segmentType</key>
                  <string>line</string>
                  <key>smooth</key>
                  <integer>1</integer>
                  <key>x</key>
                  <integer>134</integer>
                  <key>y</key>
                  <integer>624</integer>
                </dict>
                <dict>
                  <key>smooth</key>
                  <integer>0</integer>
                  <key>x</key>
                  <integer>134</integer>
                  <key>y</key>
                  <integer>662</integer>
                </dict>
                <dict>
                  <key>smooth</key>
                  <integer>0</integer>
                  <key>x</key>
                  <integer>111</integer>
                  <key>y</key>
                  <integer>684</integer>
                </dict>
                <dict>
                  <key>segmentType</key>
                  <string>curve</string>
                  <key>smooth</key>
                  <integer>0</integer>
                  <key>x</key>
                  <integer>65</integer>
                  <key>y</key>
                  <integer>690</integer>
                </dict>
                <dict>
                  <key>segmentType</key>
                  <string>line</string>
                  <key>smooth</key>
                  <integer>0</integer>
                  <key>x</key>
                  <integer>54</integer>
                  <key>y</key>
                  <integer>690</integer>
                </dict>
                <dict>
                  <key>segmentType</key>
                  <string>line</string>
                  <key>smooth</key>
                  <integer>0</integer>
                  <key>x</key>
                  <integer>50</integer>
                  <key>y</key>
                  <integer>686</integer>
                </dict>
                <dict>
                  <key>segmentType</key>
                  <string>line</string>
                  <key>smooth</key>
                  <integer>0</integer>
                  <key>x</key>
                  <integer>50</integer>
                  <key>y</key>
                  <integer>-6</integer>
                </dict>
                <dict>
                  <key>segmentType</key>
                  <string>line</string>
                  <key>smooth</key>
                  <integer>0</integer>
                  <key>x</key>
                  <integer>53</integer>
                  <key>y</key>
                  <integer>-10</integer>
                </dict>
                <dict>
                  <key>smooth</key>
                  <integer>0</integer>
                  <key>x</key>
                  <integer>94</integer>
                  <key>y</key>
                  <integer>-10</integer>
                </dict>
                <dict>
                  <key>smooth</key>
                  <integer>0</integer>
                  <key>x</key>
                  <integer>119</integer>
                  <key>y</key>
                  <integer>5</integer>
                </dict>
                <dict>
                  <key>segmentType</key>
                  <string>curve</string>
                  <key>smooth</key>
                  <integer>0</integer>
                  <key>x</key>
                  <integer>130</integer>
                  <key>y</key>
                  <integer>36</integer>
                </dict>
                <dict>
                  <key>segmentType</key>
                  <string>line</string>
                  <key>smooth</key>
                  <integer>0</integer>
                  <key>x</key>
                  <integer>134</integer>
                  <key>y</key>
                  <integer>51</integer>
                </dict>
                <dict>
                  <key>segmentType</key>
                  <string>line</string>
                  <key>smooth</key>
                  <integer>0</integer>
                  <key>x</key>
                  <integer>134</integer>
                  <key>y</key>
                  <integer>292</integer>
                </dict>
                <dict>
                  <key>segmentType</key>
                  <string>line</string>
                  <key>smooth</key>
                  <integer>0</integer>
                  <key>x</key>
                  <integer>392</integer>
                  <key>y</key>
                  <integer>292</integer>
                </dict>
                <dict>
                  <key>segmentType</key>
                  <string>line</string>
                  <key>smooth</key>
                  <integer>1</integer>
                  <key>x</key>
                  <integer>392</integer>
                  <key>y</key>
                  <integer>69</integer>
                </dict>
                <dict>
                  <key>smooth</key>
                  <integer>0</integer>
                  <key>x</key>
                  <integer>392</integer>
                  <key>y</key>
                  <integer>16</integer>
                </dict>
                <dict>
                  <key>smooth</key>
                  <integer>0</integer>
                  <key>x</key>
                  <integer>419</integer>
                  <key>y</key>
                  <integer>-10</integer>
                </dict>
                <dict>
                  <key>segmentType</key>
                  <string>curve</string>
                  <key>smooth</key>
                  <integer>0</integer>
                  <key>x</key>
                  <integer>475</integer>
                  <key>y</key>
                  <integer>-10</integer>
                </dict>
                <dict>
                  <key>segmentType</key>
                  <string>line</string>
                  <key>smooth</key>
                  <integer>0</integer>
                  <key>x</key>
                  <integer>478</integer>
                  <key>y</key>
                  <integer>-6</integer>
                </dict>
                <dict>
                  <key>segmentType</key>
                  <string>line</string>
                  <key>smooth</key>
                  <integer>0</integer>
                  <key>x</key>
                  <integer>478</integer>
                  <key>y</key>
                  <integer>686</integer>
                </dict>
                <dict>
                  <key>segmentType</key>
                  <string>line</string>
                  <key>smooth</key>
                  <integer>0</integer>
                  <key>x</key>
                  <integer>474</integer>
                  <key>y</key>
                  <integer>690</integer>
                </dict>
              </array>
            </dict>
          </array>
          <key>lib</key>
          <dict>
          </dict>
          <key>name</key>
          <string>H</string>
          <key>unicodes</key>
          <array>
          </array>
          <key>width</key>
          <integer>540</integer>
        </dict>
        <key>angulaire Aug 5 16, 18:13</key>
        <dict>
          <key>anchors</key>
          <array>
          </array>
          <key>components</key>
          <array>
          </array>
          <key>contours</key>
          <array>
            <dict>
              <key>points</key>
              <array>
                <dict>
                  <key>smooth</key>
                  <integer>0</integer>
                  <key>x</key>
                  <integer>485</integer>
                  <key>y</key>
                  <integer>-4</integer>
                </dict>
                <dict>
                  <key>smooth</key>
                  <integer>0</integer>
                  <key>x</key>
                  <integer>512</integer>
                  <key>y</key>
                  <integer>-10</integer>
                </dict>
                <dict>
                  <key>segmentType</key>
                  <string>curve</string>
                  <key>smooth</key>
                  <integer>0</integer>
                  <key>x</key>
                  <integer>568</integer>
                  <key>y</key>
                  <integer>-10</integer>
                </dict>
                <dict>
                  <key>segmentType</key>
                  <string>line</string>
                  <key>smooth</key>
                  <integer>0</integer>
                  <key>x</key>
                  <integer>571</integer>
                  <key>y</key>
                  <integer>-6</integer>
                </dict>
                <dict>
                  <key>segmentType</key>
                  <string>line</string>
                  <key>smooth</key>
                  <integer>0</integer>
                  <key>x</key>
                  <integer>571</integer>
                  <key>y</key>
                  <integer>686</integer>
                </dict>
                <dict>
                  <key>segmentType</key>
                  <string>line</string>
                  <key>smooth</key>
                  <integer>0</integer>
                  <key>x</key>
                  <integer>567</integer>
                  <key>y</key>
                  <integer>690</integer>
                </dict>
                <dict>
                  <key>segmentType</key>
                  <string>line</string>
                  <key>smooth</key>
                  <integer>0</integer>
                  <key>x</key>
                  <integer>556</integer>
                  <key>y</key>
                  <integer>690</integer>
                </dict>
                <dict>
                  <key>smooth</key>
                  <integer>0</integer>
                  <key>x</key>
                  <integer>509</integer>
                  <key>y</key>
                  <integer>684</integer>
                </dict>
                <dict>
                  <key>smooth</key>
                  <integer>0</integer>
                  <key>x</key>
                  <integer>485</integer>
                  <key>y</key>
                  <integer>681</integer>
                </dict>
                <dict>
                  <key>segmentType</key>
                  <string>curve</string>
                  <key>smooth</key>
                  <integer>0</integer>
                  <key>x</key>
                  <integer>485</integer>
                  <key>y</key>
                  <integer>638</integer>
                </dict>
                <dict>
                  <key>segmentType</key>
                  <string>line</string>
                  <key>smooth</key>
                  <integer>0</integer>
                  <key>x</key>
                  <integer>485</integer>
                  <key>y</key>
                  <integer>40</integer>
                </dict>
              </array>
            </dict>
            <dict>
              <key>points</key>
              <array>
                <dict>
                  <key>segmentType</key>
                  <string>line</string>
                  <key>smooth</key>
                  <integer>0</integer>
                  <key>x</key>
                  <integer>179</integer>
                  <key>y</key>
                  <integer>292</integer>
                </dict>
                <dict>
                  <key>segmentType</key>
                  <string>line</string>
                  <key>smooth</key>
                  <integer>0</integer>
                  <key>x</key>
                  <integer>485</integer>
                  <key>y</key>
                  <integer>292</integer>
                </dict>
                <dict>
                  <key>segmentType</key>
                  <string>line</string>
                  <key>smooth</key>
                  <integer>0</integer>
                  <key>x</key>
                  <integer>485</integer>
                  <key>y</key>
                  <integer>375</integer>
                </dict>
                <dict>
                  <key>segmentType</key>
                  <string>line</string>
                  <key>smooth</key>
                  <integer>0</integer>
                  <key>x</key>
                  <integer>179</integer>
                  <key>y</key>
                  <integer>375</integer>
                </dict>
              </array>
            </dict>
            <dict>
              <key>points</key>
              <array>
                <dict>
                  <key>segmentType</key>
                  <string>line</string>
                  <key>smooth</key>
                  <integer>0</integer>
                  <key>x</key>
                  <integer>105</integer>
                  <key>y</key>
                  <integer>40</integer>
                </dict>
                <dict>
                  <key>smooth</key>
                  <integer>0</integer>
                  <key>x</key>
                  <integer>106</integer>
                  <key>y</key>
                  <integer>-5</integer>
                </dict>
                <dict>
                  <key>smooth</key>
                  <integer>0</integer>
                  <key>x</key>
                  <integer>136</integer>
                  <key>y</key>
                  <integer>-10</integer>
                </dict>
                <dict>
                  <key>segmentType</key>
                  <string>curve</string>
                  <key>smooth</key>
                  <integer>0</integer>
                  <key>x</key>
                  <integer>186</integer>
                  <key>y</key>
                  <integer>-10</integer>
                </dict>
                <dict>
                  <key>segmentType</key>
                  <string>line</string>
                  <key>smooth</key>
                  <integer>0</integer>
                  <key>x</key>
                  <integer>189</integer>
                  <key>y</key>
                  <integer>-6</integer>
                </dict>
                <dict>
                  <key>segmentType</key>
                  <string>line</string>
                  <key>smooth</key>
                  <integer>0</integer>
                  <key>x</key>
                  <integer>189</integer>
                  <key>y</key>
                  <integer>686</integer>
                </dict>
                <dict>
                  <key>segmentType</key>
                  <string>line</string>
                  <key>smooth</key>
                  <integer>0</integer>
                  <key>x</key>
                  <integer>185</integer>
                  <key>y</key>
                  <integer>690</integer>
                </dict>
                <dict>
                  <key>segmentType</key>
                  <string>line</string>
                  <key>smooth</key>
                  <integer>0</integer>
                  <key>x</key>
                  <integer>174</integer>
                  <key>y</key>
                  <integer>690</integer>
                </dict>
                <dict>
                  <key>smooth</key>
                  <integer>0</integer>
                  <key>x</key>
                  <integer>128</integer>
                  <key>y</key>
                  <integer>684</integer>
                </dict>
                <dict>
                  <key>smooth</key>
                  <integer>0</integer>
                  <key>x</key>
                  <integer>105</integer>
                  <key>y</key>
                  <integer>682</integer>
                </dict>
                <dict>
                  <key>segmentType</key>
                  <string>curve</string>
                  <key>smooth</key>
                  <integer>0</integer>
                  <key>x</key>
                  <integer>105</integer>
                  <key>y</key>
                  <integer>644</integer>
                </dict>
              </array>
            </dict>
          </array>
          <key>lib</key>
          <dict>
          </dict>
          <key>name</key>
          <string>H</string>
          <key>unicodes</key>
          <array>
          </array>
          <key>width</key>
          <integer>648</integer>
        </dict>
      </dict>
    </dict>
  </lib>
</glyph>
