<?xml version="1.0" encoding="UTF-8"?>
<glyph name="ugrave" format="1">
  <advance width="535"/>
  <unicode hex="00F9"/>
  <outline>
    <component base="u"/>
    <component base="gravecomb" xOffset="104"/>
  </outline>
  <lib>
    <dict>
      <key>com.schriftgestaltung.Glyphs.lastChange</key>
      <string>2018-01-09 09:49:19 +0000</string>
    </dict>
  </lib>
</glyph>
