<?xml version="1.0" encoding="UTF-8"?>
<glyph name="wgrave" format="1">
  <advance width="736"/>
  <unicode hex="1E81"/>
  <outline>
    <component base="w"/>
    <component base="gravecomb" xOffset="216"/>
  </outline>
  <lib>
    <dict>
      <key>com.schriftgestaltung.Glyphs.lastChange</key>
      <string>2018-01-09 09:49:19 +0000</string>
    </dict>
  </lib>
</glyph>
